good/boolfun.corr

Parse Successful!

[Abstract Syntax]

Prog [DFun (Ident "negate") [TypedArg (Ident "x") TBool] TBool (BlockExp [] (ENeg (EVar (Ident "x")))),DFun (Ident "main") [] TUnit (BlockExp [] (EIf (ECall (Ident "negate") [UntypedArg EFalse]) (BlockExp [] (ECall (Ident "println") [UntypedArg (EInt 7)])) (BlockSt [])))]

[Linearized tree]

fn negate (x : bool)-> bool {
  ! x 
}
fn main () -> () {
  if negate (false){
    println (7)
  }
  else {
    }
  }

7
ProgState {store = fromList [(Loc 0,VFun @FUNCTION@),(Loc 1,VFun @FUNCTION@),(Loc 2,VFun @FUNCTION@),(Loc 3,VBool False)], freeloc = Loc 4}
