bad/callnoncallable.corr

Parse Successful!

[Abstract Syntax]

Prog [DFun (Ident "foo") [TypedArg (Ident "f") TInt,TypedArg (Ident "x") TInt] TInt (BlockExp [] (ECall (Ident "f") [UntypedArg (EVar (Ident "x"))])),DFun (Ident "main") [] TUnit (BlockSt [])]

[Linearized tree]

fn foo (f : int, x : int)-> int {
  f (x)
}
fn main () -> () {
  }

Error in expression: f (x)
Reason: Attempt to call a non-callable variable
Variable name: f, with type: int
... in function: foo
