bad/shadow-noleak.corr

Parse Successful!

[Abstract Syntax]

Prog [DFun (Ident "main") [] TUnit (BlockSt [SExpr (ECall (Ident "println") [UntypedArg (EVar (Ident "x"))]),SExpr (EBlock (BlockSt [SLet Let (Ident "x") (EInt 9),SExpr (ECall (Ident "println") [UntypedArg (EVar (Ident "x"))]),SLet Let (Ident "x") (EInt 19),SExpr (ECall (Ident "println") [UntypedArg (EVar (Ident "x"))]),SFn (DFun (Ident "x") [TypedArg (Ident "x") TInt] TInt (BlockExp [SLet Let (Ident "x") (EMul (EInt 2) (EVar (Ident "x")))] (EVar (Ident "x")))),SExpr (ECall (Ident "println") [UntypedArg (ECall (Ident "x") [UntypedArg (EInt 42)])])])),SExpr (ECall (Ident "println") [UntypedArg (EVar (Ident "x"))])])]

[Linearized tree]

fn main () -> () {
  println (x);
  {
    let x = 9 ;
    println (x);
    let x = 19 ;
    println (x);
    fn x (x : int)-> int {
      let x = 2 * x ;
      x 
    } ;
    println (x (42)) ;
    } ;
  println (x);
  }

Error in expression: x
Reason: Undefined variable access
Variable name: x
... in function: main
