bad/undefvar.corr

Parse Successful!

[Abstract Syntax]

Prog [DFun (Ident "foo") [TypedArg (Ident "x") TInt] TInt (BlockExp [] (EAdd (EVar (Ident "x")) (EVar (Ident "y")))),DFun (Ident "main") [] TUnit (BlockExp [] (ECall (Ident "foo") [UntypedArg (EInt 3)]))]

[Linearized tree]

fn foo (x : int)-> int {
  x + y 
}
fn main () -> () {
  foo (3)
}

Error in expression: y
Reason: Undefined variable access
Variable name: y
... in function: foo
